{
  "name": "client",
  "$schema": "../node_modules/nx/schemas/project-schema.json",
  "sourceRoot": "client",
  "projectType": "application",
  "targets": {
    "build": {
      "executor": "@nx/next:build",
      "outputs": ["{options.outputPath}"],
      "defaultConfiguration": "production",
      "options": {
        "outputPath": "dist/client"
      },
      "configurations": {
        "development": {
          "outputPath": "client"
        },
        "production": {}
      }
    },
    "serve": {
      "executor": "@nx/next:server",
      "defaultConfiguration": "development",
      "options": {
        "buildTarget": "client:build",
        "dev": true
      },
      "configurations": {
        "development": {
          "buildTarget": "client:build:development",
          "dev": true,
          "port": 4200
        },
        "production": {
          "buildTarget": "client:build:production",
          "dev": false
        }
      }
    },
    "export": {
      "executor": "@nx/next:export",
      "options": {
        "buildTarget": "client:build:production"
      }
    },
    "test": {
      "executor": "@nx/jest:jest",
      "outputs": ["{workspaceRoot}/coverage/{projectRoot}"],
      "options": {
        "jestConfig": "client/jest.config.ts"
      }
    },
    "lint": {
      "executor": "@nx/eslint:lint",
      "outputs": ["{options.outputFile}"]
    }
  },
  "tags": []
}
